Jake Jones-Smith

45342345ji;jioj;ij ;oijio;jio;jio;j io;jio;jisdfzdf

是吗！我也喜欢中国菜！我今天晚上请你吃中文饭吗？

Andrew Yang 1
Andrew Yang 20

h32480329

Andrew Yang 9

Contraversial candidate 6
Contraversial candidate 9

e3425436

Andrew Yang 10

Andrew Yang 7
